---
http_interactions:
- request:
    method: get
    uri: https://api.opencorporates.com/companies/search
    body:
      encoding: US-ASCII
      string: ''
    headers:
      User-Agent:
      - Faraday v0.9.1
  response:
    status:
      code: 200
      message: 
    headers:
      content-type:
      - application/json;charset=utf-8
      transfer-encoding:
      - chunked
      connection:
      - close
      status:
      - 200 OK
      x-content-type-options:
      - nosniff
      date:
      - Fri, 16 Oct 2015 16:36:40 GMT
      x-powered-by:
      - Phusion Passenger 5.0.20
      server:
      - nginx/1.8.0 + Phusion Passenger 5.0.20
      access-control-allow-origin:
      - 'null'
      access-control-allow-credentials:
      - 'true'
      access-control-allow-methods:
      - GET
      access-control-allow-headers:
      - DNT,X-Mx-ReqToken,Keep-Alive,User-Agent,X-Requested-With,If-Modified-Since,Cache-Control,Content-Type
    body:
      encoding: ASCII-8BIT
      string: '{"api_version":"0.4.1","results":{"companies":[{"company":{"name":"!
        ! ! ! ! ! ! ! ! ! ! ! ! ! ! ! ! ! ! ! AARDVARK ABLE SERVICES PTY. LTD.","company_number":"154457388","jurisdiction_code":"au","incorporation_date":"2015-04-17","dissolution_date":null,"company_type":"Australian
        Proprietary Company, Limited by Shares","registry_url":"https://connectonline.asic.gov.au/RegistrySearch/faces/landing/panelSearch.jspx?searchTab=search&searchType=OrgAndBusNm&searchText=154457388&_adf.ctrl-state=13cs8h575n_4","branch_status":null,"inactive":true,"current_status":"Deregistered","created_at":"2014-10-18T08:04:00+00:00","updated_at":"2015-08-18T03:01:13+00:00","retrieved_at":"2015-08-03T08:32:00+00:00","opencorporates_url":"https://opencorporates.com/companies/au/154457388","previous_names":[],"source":{"publisher":"Australian
        Securities & Investments Commission","url":"https://connectonline.asic.gov.au/RegistrySearch/faces/landing/panelSearch.jspx?searchTab=search&searchType=OrgAndBusNm&searchText=154457388&_adf.ctrl-state=13cs8h575n_4","retrieved_at":"2015-08-03T08:32:00+00:00"},"registered_address_in_full":null}},{"company":{"name":"!
        ! ! ! ! ! A A A A A A A AA AUSTECH COMMS PTY. LTD.","company_number":"154081535","jurisdiction_code":"au","incorporation_date":"2014-03-28","dissolution_date":null,"company_type":"Australian
        Proprietary Company, Limited by Shares","registry_url":"https://connectonline.asic.gov.au/RegistrySearch/faces/landing/panelSearch.jspx?searchTab=search&searchType=OrgAndBusNm&searchText=154081535&_adf.ctrl-state=13cs8h575n_4","branch_status":null,"inactive":true,"current_status":"Deregistered","created_at":"2014-10-18T08:04:00+00:00","updated_at":"2015-04-15T11:49:59+00:00","retrieved_at":"2014-12-01T09:00:00+00:00","opencorporates_url":"https://opencorporates.com/companies/au/154081535","previous_names":[],"source":{"publisher":"Australian
        Securities & Investments Commission","url":"https://connectonline.asic.gov.au/RegistrySearch/faces/landing/panelSearch.jspx?searchTab=search&searchType=OrgAndBusNm&searchText=154081535&_adf.ctrl-state=13cs8h575n_4","retrieved_at":"2014-12-01T09:00:00+00:00"},"registered_address_in_full":null}},{"company":{"name":"!
        ! ! ! $49 a Year at Www.pennsylvaniaregisteredagent.com LLC","company_number":"4271400","jurisdiction_code":"us_pa","incorporation_date":"2014-05-23","dissolution_date":null,"company_type":"Limited
        Liability Company - Domestic","registry_url":"https://www.corporations.state.pa.us/corp/soskb/corp.asp?3311437","branch_status":null,"inactive":false,"current_status":"Active","created_at":"2014-05-31T03:38:17+00:00","updated_at":"2014-09-05T09:31:27+00:00","retrieved_at":"2014-09-05T09:31:27+00:00","opencorporates_url":"https://opencorporates.com/companies/us_pa/4271400","previous_names":[],"source":{"publisher":"Pennsylvania
        Department of State","url":"https://www.corporations.state.pa.us/corp/soskb/corp.asp?3311437","retrieved_at":"2014-09-05T09:31:27+00:00"},"registered_address_in_full":"%
        Registered Agents Inc\nPA\nMontgomery"}},{"company":{"name":"! ! ! #1 AAVANTE","company_number":"C3615049","jurisdiction_code":"us_ca","incorporation_date":"2013-10-24","dissolution_date":null,"company_type":"Foreign
        Stock","registry_url":"https://businessfilings.sos.ca.gov/frmDetail.asp?CorpID=03615049","branch_status":"branch
        of an out-of-jurisdiction company","inactive":false,"current_status":"Active","created_at":"2013-11-01T05:11:40+00:00","updated_at":"2015-08-03T17:53:58+00:00","retrieved_at":"2014-12-16T20:43:21+00:00","opencorporates_url":"https://opencorporates.com/companies/us_ca/C3615049","previous_names":[],"source":{"publisher":"California
        Secretary of State","url":"http://kepler.sos.ca.gov/","retrieved_at":"2014-12-16T20:43:21+00:00"},"registered_address_in_full":"21781
        VENTURA BLVD STE #418, WOODLAND HILLS, CA 91364"}},{"company":{"name":"! !
        ! #1 AAVANTE","company_number":"20121137777","jurisdiction_code":"us_co","incorporation_date":"2012-03-02","dissolution_date":"2015-05-06","company_type":"Corporation","registry_url":null,"branch_status":null,"inactive":true,"current_status":"Voluntarily
        Dissolved","created_at":"2015-09-17T08:52:07+00:00","updated_at":"2015-09-17T08:52:07+00:00","retrieved_at":"2015-09-05T08:51:09+00:00","opencorporates_url":"https://opencorporates.com/companies/us_co/20121137777","previous_names":[],"source":null,"registered_address_in_full":null}},{"company":{"name":"!
        ! ! $0 COST DOMAIN AND HOSTING SERVICES, INC.","company_number":"3817941","jurisdiction_code":"us_de","incorporation_date":"2004-06-18","dissolution_date":null,"company_type":"Corporation","registry_url":null,"branch_status":null,"inactive":null,"current_status":null,"created_at":"2015-10-15T16:23:07+00:00","updated_at":"2015-10-15T16:23:07+00:00","retrieved_at":"2015-10-10T19:40:22+00:00","opencorporates_url":"https://opencorporates.com/companies/us_de/3817941","previous_names":[],"source":{"publisher":"Delaware
        Department of State: Division of Corporations","url":"http://www.corp.delaware.gov/","retrieved_at":"2015-10-10T19:40:22+00:00"},"registered_address_in_full":null}},{"company":{"name":"!
        ! ! 1ST CHOICE ANDROID SMART-PHONE TUTORING, INC.","company_number":"C3517133","jurisdiction_code":"us_ca","incorporation_date":"2012-11-02","dissolution_date":null,"company_type":"Domestic
        Stock","registry_url":"https://businessfilings.sos.ca.gov/frmDetail.asp?CorpID=03517133","branch_status":null,"inactive":false,"current_status":"Active","created_at":"2012-11-10T03:15:55+00:00","updated_at":"2015-06-21T20:12:54+00:00","retrieved_at":"2015-06-21T20:12:54+00:00","opencorporates_url":"https://opencorporates.com/companies/us_ca/C3517133","previous_names":[],"source":{"publisher":"California
        Secretary of State","url":"http://kepler.sos.ca.gov/","retrieved_at":"2015-06-21T20:12:54+00:00"},"registered_address_in_full":"420
        N MCKINLEY ST #111-182, CORONA, CA 92879"}},{"company":{"name":"! ! ! BB BULK,
        Inc.","company_number":"cc09aa62-87d4-e011-a886-001ec94ffe7f","jurisdiction_code":"us_mn","incorporation_date":"2003-11-26","dissolution_date":null,"company_type":"Business
        Corporation (Domestic)","registry_url":"https://mblsportal.sos.state.mn.us/Business/SearchDetails?filingGuid=cc09aa62-87d4-e011-a886-001ec94ffe7f","branch_status":null,"inactive":true,"current_status":"Inactive","created_at":"2015-07-03T01:51:55+00:00","updated_at":"2015-07-03T05:05:21+00:00","retrieved_at":"2015-06-26T14:22:13+00:00","opencorporates_url":"https://opencorporates.com/companies/us_mn/cc09aa62-87d4-e011-a886-001ec94ffe7f","previous_names":[],"source":{"publisher":"Office
        of the Minnesota Secretary Of State","url":"https://mblsportal.sos.state.mn.us/Business/SearchDetails?filingGuid=cc09aa62-87d4-e011-a886-001ec94ffe7f","retrieved_at":"2015-06-26T14:22:13+00:00"},"registered_address_in_full":"5400
        Vernon Ave S #218\nMpls, MN 55436\nUSA"}},{"company":{"name":"! ! !Seckel
        Capital","company_number":"4050002","jurisdiction_code":"us_pa","incorporation_date":"2011-08-15","dissolution_date":null,"company_type":null,"registry_url":"https://www.corporations.state.pa.us/corp/soskb/corp.asp?2980005","branch_status":null,"inactive":null,"current_status":null,"created_at":"2013-10-13T17:32:35+00:00","updated_at":"2014-03-06T19:07:17+00:00","retrieved_at":"2013-09-20T08:00:41+00:00","opencorporates_url":"https://opencorporates.com/companies/us_pa/4050002","previous_names":[],"source":{"publisher":"Pennsylvania
        Department of State","url":"https://www.corporations.state.pa.us/corp/soskb/corp.asp?2980005","retrieved_at":"2013-09-20T08:00:41+00:00"},"registered_address_in_full":null}},{"company":{"name":"!
        ! # 1 2 3 ! ! COMPUTADORA GRATIS PARA TI","company_number":"C3426562","jurisdiction_code":"us_ca","incorporation_date":"2011-11-23","dissolution_date":null,"company_type":"Domestic
        Stock","registry_url":"https://businessfilings.sos.ca.gov/frmDetail.asp?CorpID=03426562","branch_status":null,"inactive":true,"current_status":"Suspended","created_at":"2013-06-19T20:58:58+00:00","updated_at":"2014-03-07T09:39:33+00:00","retrieved_at":"2014-02-01T03:20:19+00:00","opencorporates_url":"https://opencorporates.com/companies/us_ca/C3426562","previous_names":[],"source":{"publisher":"California
        Secretary of State","url":"http://kepler.sos.ca.gov/","retrieved_at":"2014-02-01T03:20:19+00:00"},"registered_address_in_full":"1348
        N SIERRA BONITA #307, WEST HOLLYWOOD, CA 90046"}},{"company":{"name":"! !
        # 1 AT-HOME TUTORS, INC.","company_number":"C3358492","jurisdiction_code":"us_ca","incorporation_date":"2011-03-16","dissolution_date":null,"company_type":"Domestic
        Stock","registry_url":"https://businessfilings.sos.ca.gov/frmDetail.asp?CorpID=03358492","branch_status":null,"inactive":true,"current_status":"Merged
        Out","created_at":"2011-09-17T21:41:58+00:00","updated_at":"2014-03-04T21:01:27+00:00","retrieved_at":"2013-12-12T10:02:12+00:00","opencorporates_url":"https://opencorporates.com/companies/us_ca/C3358492","previous_names":[],"source":{"publisher":"California
        Secretary of State","url":"http://kepler.sos.ca.gov/","retrieved_at":"2013-12-12T10:02:12+00:00"},"registered_address_in_full":"5777
        W. CENTURY BLVD., SUITE 300, LOS ANGELES, CA 90045"}},{"company":{"name":"!
        \"B2B\" DOMAINS LLC","company_number":"38460C5","jurisdiction_code":"us_hi","incorporation_date":null,"dissolution_date":null,"company_type":null,"registry_url":"https://hbe.ehawaii.gov/documents/business.html?fileNumber=38460C5","branch_status":null,"inactive":true,"current_status":"Adm.
        Terminated","created_at":"2014-05-21T22:12:46+00:00","updated_at":"2014-05-21T22:12:46+00:00","retrieved_at":"2014-05-20T15:14:37+00:00","opencorporates_url":"https://opencorporates.com/companies/us_hi/38460C5","previous_names":[],"source":{"publisher":"Hawaii
        Department Of Commerce & Consumer Affairs","url":"https://hbe.ehawaii.gov/documents/business.html?fileNumber=38460C5","retrieved_at":"2014-05-20T15:14:37+00:00"},"registered_address_in_full":null}},{"company":{"name":"!
        # 0000 ACCELERATED BUILDERS COURSE, INC.","company_number":"02056G","jurisdiction_code":"us_mi","incorporation_date":"2009-03-16","dissolution_date":"2012-07-15","company_type":"Domestic
        Profit Corporation","registry_url":"http://www.dleg.state.mi.us/bcs_corp/dt_corp.asp?id_nbr=02056G","branch_status":null,"inactive":true,"current_status":"Automatic
        Dissolution","created_at":"2011-01-24T00:10:35+00:00","updated_at":"2015-08-02T03:00:17+00:00","retrieved_at":"2015-08-02T03:00:17+00:00","opencorporates_url":"https://opencorporates.com/companies/us_mi/02056G","previous_names":[],"source":{"publisher":"Michigan
        Department of Energy, Labor & Economic Growth","url":"http://www.dleg.state.mi.us/bcs_corp/sr_corp.asp","retrieved_at":"2015-08-02T03:00:17+00:00"},"registered_address_in_full":"55
        E LONG LAKE RD # 460, TROY, MI 48085"}},{"company":{"name":"! # 1 AVAILABLE
        LOCKSMITH LTD","company_number":"05905727","jurisdiction_code":"gb","incorporation_date":"2006-08-15","dissolution_date":"2009-08-18","company_type":"Private
        Limited Company","registry_url":"http://data.companieshouse.gov.uk/doc/company/05905727","branch_status":null,"inactive":true,"current_status":"Dissolved","created_at":"2010-10-22T22:19:59+00:00","updated_at":"2014-10-21T14:32:40+00:00","retrieved_at":"2011-11-15T09:06:23+00:00","opencorporates_url":"https://opencorporates.com/companies/gb/05905727","previous_names":[],"source":{"publisher":"UK
        Companies House","url":"http://xmlgw.companieshouse.gov.uk/","terms":"UK Crown
        Copyright","retrieved_at":"2011-11-15T09:06:23+00:00"},"registered_address_in_full":"SUITE
        368, 2 LANSDOWNE ROW, LONDON, W1J 6HL"}},{"company":{"name":"! #1 HOST AUSTRALIA
        INC.","company_number":"3980925","jurisdiction_code":"us_de","incorporation_date":"2005-06-06","dissolution_date":null,"company_type":"Corporation","registry_url":null,"branch_status":null,"inactive":null,"current_status":null,"created_at":"2015-09-16T10:47:00+00:00","updated_at":"2015-10-15T19:35:47+00:00","retrieved_at":"2015-10-10T20:39:13+00:00","opencorporates_url":"https://opencorporates.com/companies/us_de/3980925","previous_names":[],"source":{"publisher":"Delaware
        Department of State: Division of Corporations","url":"http://www.corp.delaware.gov/","retrieved_at":"2015-10-10T20:39:13+00:00"},"registered_address_in_full":null}},{"company":{"name":"!
        #1 HOST BRAZIL INC.","company_number":"3980906","jurisdiction_code":"us_de","incorporation_date":"2005-06-06","dissolution_date":null,"company_type":"Corporation","registry_url":null,"branch_status":null,"inactive":null,"current_status":null,"created_at":"2015-09-16T10:46:59+00:00","updated_at":"2015-10-15T19:35:46+00:00","retrieved_at":"2015-10-10T20:39:13+00:00","opencorporates_url":"https://opencorporates.com/companies/us_de/3980906","previous_names":[],"source":{"publisher":"Delaware
        Department of State: Division of Corporations","url":"http://www.corp.delaware.gov/","retrieved_at":"2015-10-10T20:39:13+00:00"},"registered_address_in_full":null}},{"company":{"name":"!
        #1 HOST CANADA INC.","company_number":"3980939","jurisdiction_code":"us_de","incorporation_date":"2005-06-06","dissolution_date":null,"company_type":"Corporation","registry_url":null,"branch_status":null,"inactive":null,"current_status":null,"created_at":"2015-09-16T10:47:01+00:00","updated_at":"2015-10-15T19:35:47+00:00","retrieved_at":"2015-10-10T20:39:14+00:00","opencorporates_url":"https://opencorporates.com/companies/us_de/3980939","previous_names":[],"source":{"publisher":"Delaware
        Department of State: Division of Corporations","url":"http://www.corp.delaware.gov/","retrieved_at":"2015-10-10T20:39:14+00:00"},"registered_address_in_full":null}},{"company":{"name":"!
        #1 HOST CHINA INC.","company_number":"3980916","jurisdiction_code":"us_de","incorporation_date":"2005-06-06","dissolution_date":null,"company_type":"Corporation","registry_url":null,"branch_status":null,"inactive":null,"current_status":null,"created_at":"2015-09-16T10:47:00+00:00","updated_at":"2015-10-15T19:35:47+00:00","retrieved_at":"2015-10-10T20:39:13+00:00","opencorporates_url":"https://opencorporates.com/companies/us_de/3980916","previous_names":[],"source":{"publisher":"Delaware
        Department of State: Division of Corporations","url":"http://www.corp.delaware.gov/","retrieved_at":"2015-10-10T20:39:13+00:00"},"registered_address_in_full":null}},{"company":{"name":"!
        #1 HOST GERMANY INC.","company_number":"3980920","jurisdiction_code":"us_de","incorporation_date":"2005-06-06","dissolution_date":null,"company_type":"Corporation","registry_url":null,"branch_status":null,"inactive":null,"current_status":null,"created_at":"2015-09-16T10:47:00+00:00","updated_at":"2015-10-15T19:35:47+00:00","retrieved_at":"2015-10-10T20:39:13+00:00","opencorporates_url":"https://opencorporates.com/companies/us_de/3980920","previous_names":[],"source":{"publisher":"Delaware
        Department of State: Division of Corporations","url":"http://www.corp.delaware.gov/","retrieved_at":"2015-10-10T20:39:13+00:00"},"registered_address_in_full":null}},{"company":{"name":"!
        #1 HOST ISRAEL INC.","company_number":"3996066","jurisdiction_code":"us_de","incorporation_date":"2005-07-06","dissolution_date":null,"company_type":"Corporation","registry_url":null,"branch_status":null,"inactive":null,"current_status":null,"created_at":"2015-09-16T11:20:26+00:00","updated_at":"2015-10-15T19:48:23+00:00","retrieved_at":"2015-10-10T20:44:39+00:00","opencorporates_url":"https://opencorporates.com/companies/us_de/3996066","previous_names":[],"source":{"publisher":"Delaware
        Department of State: Division of Corporations","url":"http://www.corp.delaware.gov/","retrieved_at":"2015-10-10T20:44:39+00:00"},"registered_address_in_full":null}},{"company":{"name":"!
        #1 HOST JAPAN INC.","company_number":"3996072","jurisdiction_code":"us_de","incorporation_date":"2005-07-06","dissolution_date":null,"company_type":"Corporation","registry_url":null,"branch_status":null,"inactive":null,"current_status":null,"created_at":"2015-09-16T11:20:27+00:00","updated_at":"2015-10-15T19:48:23+00:00","retrieved_at":"2015-10-10T20:44:39+00:00","opencorporates_url":"https://opencorporates.com/companies/us_de/3996072","previous_names":[],"source":{"publisher":"Delaware
        Department of State: Division of Corporations","url":"http://www.corp.delaware.gov/","retrieved_at":"2015-10-10T20:44:39+00:00"},"registered_address_in_full":null}},{"company":{"name":"!
        #1 HOST KOREA INC.","company_number":"3996079","jurisdiction_code":"us_de","incorporation_date":"2005-07-06","dissolution_date":null,"company_type":"Corporation","registry_url":null,"branch_status":null,"inactive":null,"current_status":null,"created_at":"2015-09-16T11:20:34+00:00","updated_at":"2015-10-15T19:48:24+00:00","retrieved_at":"2015-10-10T20:44:39+00:00","opencorporates_url":"https://opencorporates.com/companies/us_de/3996079","previous_names":[],"source":{"publisher":"Delaware
        Department of State: Division of Corporations","url":"http://www.corp.delaware.gov/","retrieved_at":"2015-10-10T20:44:39+00:00"},"registered_address_in_full":null}},{"company":{"name":"!
        #1 HOST KUWAIT INC.","company_number":"F09000001869","jurisdiction_code":"us_fl","incorporation_date":"2009-05-07","dissolution_date":null,"company_type":"Foreign
        for Profit","registry_url":null,"branch_status":"branch of an out-of-jurisdiction
        company","inactive":true,"current_status":"Inactive","created_at":"2012-04-07T20:23:01+00:00","updated_at":"2015-06-23T11:12:46+00:00","retrieved_at":"2015-06-01T00:00:00+00:00","opencorporates_url":"https://opencorporates.com/companies/us_fl/F09000001869","previous_names":[],"source":{"publisher":"Florida
        Department of State Division of Corporations","url":"http://www.sunbiz.org","retrieved_at":"2015-06-01T00:00:00+00:00"},"registered_address_in_full":null}},{"company":{"name":"!
        #1 HOST KUWAIT INC.","company_number":"3996061","jurisdiction_code":"us_de","incorporation_date":"2005-07-06","dissolution_date":null,"company_type":"Corporation","registry_url":null,"branch_status":null,"inactive":null,"current_status":null,"created_at":"2015-09-16T11:20:26+00:00","updated_at":"2015-10-15T19:48:23+00:00","retrieved_at":"2015-10-10T20:44:39+00:00","opencorporates_url":"https://opencorporates.com/companies/us_de/3996061","previous_names":[],"source":{"publisher":"Delaware
        Department of State: Division of Corporations","url":"http://www.corp.delaware.gov/","retrieved_at":"2015-10-10T20:44:39+00:00"},"registered_address_in_full":null}},{"company":{"name":"!
        #1 HOST MALAYSIA INC.","company_number":"F09000001863","jurisdiction_code":"us_fl","incorporation_date":"2009-05-07","dissolution_date":null,"company_type":"Foreign
        for Profit","registry_url":null,"branch_status":"branch of an out-of-jurisdiction
        company","inactive":true,"current_status":"Inactive","created_at":"2012-03-05T22:12:57+00:00","updated_at":"2015-06-29T22:51:38+00:00","retrieved_at":"2015-06-01T00:00:00+00:00","opencorporates_url":"https://opencorporates.com/companies/us_fl/F09000001863","previous_names":[],"source":{"publisher":"Florida
        Department of State Division of Corporations","url":"http://www.sunbiz.org","retrieved_at":"2015-06-01T00:00:00+00:00"},"registered_address_in_full":null}},{"company":{"name":"!
        #1 HOST MALAYSIA INC.","company_number":"3996069","jurisdiction_code":"us_de","incorporation_date":"2005-07-06","dissolution_date":null,"company_type":"Corporation","registry_url":null,"branch_status":null,"inactive":null,"current_status":null,"created_at":"2015-09-16T11:20:26+00:00","updated_at":"2015-10-15T19:48:23+00:00","retrieved_at":"2015-10-10T20:44:39+00:00","opencorporates_url":"https://opencorporates.com/companies/us_de/3996069","previous_names":[],"source":{"publisher":"Delaware
        Department of State: Division of Corporations","url":"http://www.corp.delaware.gov/","retrieved_at":"2015-10-10T20:44:39+00:00"},"registered_address_in_full":null}},{"company":{"name":"!
        #1 HOST UNITED KINGDOM INC.","company_number":"3996064","jurisdiction_code":"us_de","incorporation_date":"2005-07-06","dissolution_date":null,"company_type":"Corporation","registry_url":null,"branch_status":null,"inactive":null,"current_status":null,"created_at":"2015-09-16T11:20:26+00:00","updated_at":"2015-10-15T19:48:23+00:00","retrieved_at":"2015-10-10T20:44:39+00:00","opencorporates_url":"https://opencorporates.com/companies/us_de/3996064","previous_names":[],"source":{"publisher":"Delaware
        Department of State: Division of Corporations","url":"http://www.corp.delaware.gov/","retrieved_at":"2015-10-10T20:44:39+00:00"},"registered_address_in_full":null}},{"company":{"name":"!
        #1 HOST UNITED KINGDOM INC.","company_number":"F09000001865","jurisdiction_code":"us_fl","incorporation_date":"2009-05-07","dissolution_date":null,"company_type":"Foreign
        for Profit","registry_url":null,"branch_status":"branch of an out-of-jurisdiction
        company","inactive":true,"current_status":"Inactive","created_at":"2012-03-21T08:56:25+00:00","updated_at":"2015-08-04T04:47:54+00:00","retrieved_at":"2015-06-01T00:00:00+00:00","opencorporates_url":"https://opencorporates.com/companies/us_fl/F09000001865","previous_names":[],"source":{"publisher":"Florida
        Department of State Division of Corporations","url":"http://www.sunbiz.org","retrieved_at":"2015-06-01T00:00:00+00:00"},"registered_address_in_full":null}},{"company":{"name":"!
        (BANG) J INCORPORATED","company_number":"0836526","jurisdiction_code":"us_nc","incorporation_date":"2006-03-24","dissolution_date":null,"company_type":"Business
        Corporation","registry_url":null,"branch_status":"branch of an out-of-jurisdiction
        company","inactive":true,"current_status":"Withdrawn","created_at":"2014-09-27T02:36:50+00:00","updated_at":"2015-09-16T13:15:19+00:00","retrieved_at":null,"opencorporates_url":"https://opencorporates.com/companies/us_nc/0836526","previous_names":[],"source":{"publisher":"North
        Carolina Secretary of State, Corporations Division","url":"http://www.secretary.state.nc.us/corporations/","retrieved_at":null},"registered_address_in_full":"2109
        MOUNTAIN HIGH ROAD WAKE FOREST NC 27587"}},{"company":{"name":"! - AAA AIRPORT
        DENVER LIMO LLC","company_number":"20081098985","jurisdiction_code":"us_co","incorporation_date":"2008-02-19","dissolution_date":null,"company_type":"Limited
        Liability Company","registry_url":null,"branch_status":null,"inactive":null,"current_status":"Delinquent","created_at":"2015-09-15T19:14:24+00:00","updated_at":"2015-09-15T19:14:24+00:00","retrieved_at":"2015-09-05T06:58:07+00:00","opencorporates_url":"https://opencorporates.com/companies/us_co/20081098985","previous_names":[],"source":null,"registered_address_in_full":null}}],"page":1,"per_page":30,"total_pages":3071817,"total_count":92154493}}'
    http_version: 
  recorded_at: Fri, 16 Oct 2015 16:36:41 GMT
recorded_with: VCR 2.9.3
