---
http_interactions:
- request:
    method: get
    uri: https://api.opencorporates.com/officers/search
    body:
      encoding: US-ASCII
      string: ''
    headers:
      User-Agent:
      - Faraday v0.9.1
  response:
    status:
      code: 200
      message: 
    headers:
      content-type:
      - application/json;charset=utf-8
      transfer-encoding:
      - chunked
      connection:
      - close
      status:
      - 200 OK
      x-content-type-options:
      - nosniff
      x-powered-by:
      - Phusion Passenger 4.0.58
      date:
      - Fri, 11 Sep 2015 02:40:17 GMT
      server:
      - nginx/1.6.1 + Phusion Passenger 4.0.52
      access-control-allow-origin:
      - 'null'
      access-control-allow-credentials:
      - 'true'
      access-control-allow-methods:
      - GET
      access-control-allow-headers:
      - DNT,X-Mx-ReqToken,Keep-Alive,User-Agent,X-Requested-With,If-Modified-Since,Cache-Control,Content-Type
    body:
      encoding: ASCII-8BIT
      string: '{"api_version":"0.4.1","results":{"page":1,"per_page":30,"total_pages":3813672,"total_count":114410155,"officers":[{"officer":{"id":108907966,"uid":null,"name":"
        \"M HOLDING\" LIMITED LIABILITY COMPANY","jurisdiction_code":"gb","position":"llp
        member","retrieved_at":"2014-10-18T18:23:33+00:00","opencorporates_url":"https://opencorporates.com/officers/108907966","start_date":"2011-11-29","end_date":"2012-01-12","occupation":null,"current_status":"RESIGNED","inactive":true,"company":{"name":"PRUDENCIA
        LLP","jurisdiction_code":"gb","company_number":"OC303222","opencorporates_url":"https://opencorporates.com/companies/gb/OC303222"}}},{"officer":{"id":108907967,"uid":null,"name":"
        \"SCS\" LTD.","jurisdiction_code":"gb","position":"llp member","retrieved_at":"2014-10-18T18:23:34+00:00","opencorporates_url":"https://opencorporates.com/officers/108907967","start_date":"2011-11-29","end_date":"2012-01-12","occupation":null,"current_status":"RESIGNED","inactive":true,"company":{"name":"PRUDENCIA
        LLP","jurisdiction_code":"gb","company_number":"OC303222","opencorporates_url":"https://opencorporates.com/companies/gb/OC303222"}}},{"officer":{"id":112630507,"uid":null,"name":"
        \"STANDARD SOFT\" LTD","jurisdiction_code":"gb","position":"llp designated
        member","retrieved_at":"2014-11-26T08:30:52+00:00","opencorporates_url":"https://opencorporates.com/officers/112630507","start_date":"2014-11-04","end_date":null,"occupation":null,"current_status":"CURRENT","inactive":false,"company":{"name":"TICO
        NETWORK LLP","jurisdiction_code":"gb","company_number":"OC396269","opencorporates_url":"https://opencorporates.com/companies/gb/OC396269"}}},{"officer":{"id":98445307,"uid":null,"name":"
        ''I SAY'' SUPPORTED LIVING SERVICES LIMITED","jurisdiction_code":"gb","position":"director","retrieved_at":"2014-08-14T17:09:53+00:00","opencorporates_url":"https://opencorporates.com/officers/98445307","start_date":"2013-03-14","end_date":null,"occupation":null,"current_status":"CURRENT","inactive":true,"company":{"name":"''I
        SAY'' CHILDRENS SUPPORT SERVICES LIMITED","jurisdiction_code":"gb","company_number":"08445501","opencorporates_url":"https://opencorporates.com/companies/gb/08445501"}}},{"officer":{"id":108860087,"uid":null,"name":"
        (E=) LIMITED","jurisdiction_code":"gb","position":"llp designated member","retrieved_at":"2014-10-17T20:06:33+00:00","opencorporates_url":"https://opencorporates.com/officers/108860087","start_date":"2011-02-23","end_date":null,"occupation":null,"current_status":"CURRENT","inactive":false,"company":{"name":"THE
        CLIENT RELATIONSHIP CONSULTANCY GROUP LLP","jurisdiction_code":"gb","company_number":"OC362118","opencorporates_url":"https://opencorporates.com/companies/gb/OC362118"}}},{"officer":{"id":108983676,"uid":null,"name":"
        (E=) LIMITED","jurisdiction_code":"gb","position":"llp designated member","retrieved_at":"2014-10-20T07:33:06+00:00","opencorporates_url":"https://opencorporates.com/officers/108983676","start_date":"2009-09-30","end_date":null,"occupation":null,"current_status":"CURRENT","inactive":false,"company":{"name":"THE
        CLIENT RELATIONSHIP CONSULTANCY LLP","jurisdiction_code":"gb","company_number":"OC341147","opencorporates_url":"https://opencorporates.com/companies/gb/OC341147"}}},{"officer":{"id":108922051,"uid":null,"name":"
        (E=) LIMITED","jurisdiction_code":"gb","position":"director","retrieved_at":"2014-10-19T02:32:58+00:00","opencorporates_url":"https://opencorporates.com/officers/108922051","start_date":"2013-03-05","end_date":null,"occupation":null,"current_status":"CURRENT","inactive":false,"company":{"name":"CRC2
        LTD","jurisdiction_code":"gb","company_number":"08430165","opencorporates_url":"https://opencorporates.com/companies/gb/08430165"}}},{"officer":{"id":127796470,"uid":null,"name":"
        *RJAN HANSSEN","jurisdiction_code":"gb","position":"director","retrieved_at":"2015-03-19T11:59:50+00:00","opencorporates_url":"https://opencorporates.com/officers/127796470","start_date":"2007-04-01","end_date":"2007-05-25","occupation":"DIRECTOR","current_status":"RESIGNED","inactive":true,"company":{"name":"GALAX
        INVEST LTD.","jurisdiction_code":"gb","company_number":"05485351","opencorporates_url":"https://opencorporates.com/companies/gb/05485351"}}},{"officer":{"id":127086928,"uid":null,"name":"
        +A COMPANY LIMITED","jurisdiction_code":"gb","position":"director","retrieved_at":"2015-03-03T19:43:58+00:00","opencorporates_url":"https://opencorporates.com/officers/127086928","start_date":"2000-09-08","end_date":null,"occupation":"CORPORATE
        DIRECTOR","current_status":"CURRENT","inactive":true,"company":{"name":"BROADVISION
        INC LIMITED","jurisdiction_code":"gb","company_number":"03777456","opencorporates_url":"https://opencorporates.com/companies/gb/03777456"}}},{"officer":{"id":127871476,"uid":null,"name":"
        +A COMPANY LIMITED","jurisdiction_code":"gb","position":"director","retrieved_at":"2015-03-20T08:20:21+00:00","opencorporates_url":"https://opencorporates.com/officers/127871476","start_date":"2000-11-14","end_date":null,"occupation":"CORPORATE
        BODY","current_status":"CURRENT","inactive":true,"company":{"name":"GOTO AUCTIONS
        LIMITED","jurisdiction_code":"gb","company_number":"04032056","opencorporates_url":"https://opencorporates.com/companies/gb/04032056"}}},{"officer":{"id":108842686,"uid":null,"name":"
        +A COMPANY LIMITED","jurisdiction_code":"gb","position":"director","retrieved_at":"2014-10-17T06:09:57+00:00","opencorporates_url":"https://opencorporates.com/officers/108842686","start_date":"2000-09-01","end_date":null,"occupation":null,"current_status":"CURRENT","inactive":false,"company":{"name":"GOTO.COM
        LIMITED","jurisdiction_code":"gb","company_number":"03861056","opencorporates_url":"https://opencorporates.com/companies/gb/03861056"}}},{"officer":{"id":108983392,"uid":null,"name":"
        +A COMPANY LIMITED","jurisdiction_code":"gb","position":"director","retrieved_at":"2014-10-20T07:27:03+00:00","opencorporates_url":"https://opencorporates.com/officers/108983392","start_date":"2001-02-23","end_date":"2001-06-20","occupation":"CORPORATE
        DIRECTOR","current_status":"RESIGNED","inactive":true,"company":{"name":"AL
        JAZEERA SPORTS LIMITED","jurisdiction_code":"gb","company_number":"04167044","opencorporates_url":"https://opencorporates.com/companies/gb/04167044"}}},{"officer":{"id":127442423,"uid":null,"name":"
        +A COMPANY LIMITED","jurisdiction_code":"gb","position":"director","retrieved_at":"2015-03-15T17:46:54+00:00","opencorporates_url":"https://opencorporates.com/officers/127442423","start_date":"2001-02-06","end_date":"2003-04-07","occupation":"CORPORATE
        BODY","current_status":"RESIGNED","inactive":true,"company":{"name":"DATACOMMS
        TECHNOLOGY LIMITED","jurisdiction_code":"gb","company_number":"04015456","opencorporates_url":"https://opencorporates.com/companies/gb/04015456"}}},{"officer":{"id":126897922,"uid":null,"name":"
        +A COMPANY LIMITED","jurisdiction_code":"gb","position":"director","retrieved_at":"2015-02-22T06:38:58+00:00","opencorporates_url":"https://opencorporates.com/officers/126897922","start_date":"2000-09-21","end_date":null,"occupation":"COMPANY
        DIRECTOR","current_status":"CURRENT","inactive":true,"company":{"name":"COMPUTER
        NETWORK TECHNOLOGY LIMITED","jurisdiction_code":"gb","company_number":"04075944","opencorporates_url":"https://opencorporates.com/companies/gb/04075944"}}},{"officer":{"id":109105095,"uid":null,"name":"
        +A COMPANY LIMITED","jurisdiction_code":"gb","position":"director","retrieved_at":"2014-10-22T15:11:21+00:00","opencorporates_url":"https://opencorporates.com/officers/109105095","start_date":"1996-05-24","end_date":"1998-04-25","occupation":"LIMITED
        COMPANY","current_status":"RESIGNED","inactive":true,"company":{"name":"+A
        COMPANY LIMITED","jurisdiction_code":"gb","company_number":"03203694","opencorporates_url":"https://opencorporates.com/companies/gb/03203694"}}},{"officer":{"id":108375187,"uid":null,"name":"
        +A COMPANY LIMITED","jurisdiction_code":"gb","position":"director","retrieved_at":"2014-10-05T12:08:21+00:00","opencorporates_url":"https://opencorporates.com/officers/108375187","start_date":"2007-01-22","end_date":"2007-07-23","occupation":"CORPORATE
        BODY","current_status":"RESIGNED","inactive":true,"company":{"name":"CACHET
        DEVELOPMENTS LIMITED","jurisdiction_code":"gb","company_number":"05840259","opencorporates_url":"https://opencorporates.com/companies/gb/05840259"}}},{"officer":{"id":115171413,"uid":null,"name":"
        +A COMPANY LIMITED","jurisdiction_code":"gb","position":"director","retrieved_at":"2014-12-08T09:18:54+00:00","opencorporates_url":"https://opencorporates.com/officers/115171413","start_date":"2001-02-26","end_date":null,"occupation":null,"current_status":"CURRENT","inactive":false,"company":{"name":"ANGLO
        AMERICAN FINANCIAL CORPORATION LIMITED","jurisdiction_code":"gb","company_number":"03630978","opencorporates_url":"https://opencorporates.com/companies/gb/03630978"}}},{"officer":{"id":82995895,"uid":null,"name":"
        +A COMPANY LIMITED","jurisdiction_code":"gb","position":"director","retrieved_at":"2013-12-08T22:21:06+00:00","opencorporates_url":"https://opencorporates.com/officers/82995895","start_date":"2002-01-02","end_date":"2011-08-16","occupation":null,"current_status":"RESIGNED","inactive":true,"company":{"name":"CONSIGNIA
        AUTOS LIMITED","jurisdiction_code":"gb","company_number":"04271262","opencorporates_url":"https://opencorporates.com/companies/gb/04271262"}}},{"officer":{"id":108349472,"uid":null,"name":"
        +A COMPANY LIMITED","jurisdiction_code":"gb","position":"director","retrieved_at":"2014-10-04T22:30:02+00:00","opencorporates_url":"https://opencorporates.com/officers/108349472","start_date":"1998-01-01","end_date":"2009-05-01","occupation":"COMPANY
        DIRECTOR","current_status":"RESIGNED","inactive":true,"company":{"name":"SKYLARK
        INTERNATIONAL LIMITED","jurisdiction_code":"gb","company_number":"03175172","opencorporates_url":"https://opencorporates.com/companies/gb/03175172"}}},{"officer":{"id":108953408,"uid":null,"name":"
        +A COMPANY LIMITED","jurisdiction_code":"gb","position":"director","retrieved_at":"2014-10-19T15:26:45+00:00","opencorporates_url":"https://opencorporates.com/officers/108953408","start_date":"2001-05-01","end_date":"2009-05-01","occupation":"COMPANY","current_status":"RESIGNED","inactive":true,"company":{"name":"COPPER
        MOUNTAIN NETWORKS LIMITED","jurisdiction_code":"gb","company_number":"04001720","opencorporates_url":"https://opencorporates.com/companies/gb/04001720"}}},{"officer":{"id":108677512,"uid":null,"name":"
        +A COMPANY LIMITED","jurisdiction_code":"gb","position":"director","retrieved_at":"2014-10-12T13:02:50+00:00","opencorporates_url":"https://opencorporates.com/officers/108677512","start_date":"2012-12-19","end_date":null,"occupation":null,"current_status":"CURRENT","inactive":false,"company":{"name":"CLEAN
        AS A WHISTLE (DRY CLEANERS) LIMITED","jurisdiction_code":"gb","company_number":"08249063","opencorporates_url":"https://opencorporates.com/companies/gb/08249063"}}},{"officer":{"id":115241788,"uid":null,"name":"
        +A COMPANY LIMITED","jurisdiction_code":"gb","position":"director","retrieved_at":"2014-12-10T01:07:37+00:00","opencorporates_url":"https://opencorporates.com/officers/115241788","start_date":"2000-07-12","end_date":null,"occupation":null,"current_status":"CURRENT","inactive":false,"company":{"name":"LEAPFROG
        GAMES LIMITED","jurisdiction_code":"gb","company_number":"04032509","opencorporates_url":"https://opencorporates.com/companies/gb/04032509"}}},{"officer":{"id":108730368,"uid":null,"name":"
        +A COMPANY LIMITED","jurisdiction_code":"gb","position":"director","retrieved_at":"2014-10-13T19:43:39+00:00","opencorporates_url":"https://opencorporates.com/officers/108730368","start_date":"1999-11-03","end_date":"2009-05-01","occupation":"LIMITED
        COMPANY","current_status":"RESIGNED","inactive":true,"company":{"name":"HOT
        ICE LIMITED","jurisdiction_code":"gb","company_number":"03466250","opencorporates_url":"https://opencorporates.com/companies/gb/03466250"}}},{"officer":{"id":127573261,"uid":null,"name":"
        +A COMPANY LIMITED","jurisdiction_code":"gb","position":"director","retrieved_at":"2015-03-17T04:46:44+00:00","opencorporates_url":"https://opencorporates.com/officers/127573261","start_date":"1999-09-06","end_date":"2000-05-16","occupation":"LIMITED
        COMPANY","current_status":"RESIGNED","inactive":true,"company":{"name":"FATBRAIN.COM
        LIMITED","jurisdiction_code":"gb","company_number":"03659748","opencorporates_url":"https://opencorporates.com/companies/gb/03659748"}}},{"officer":{"id":107704925,"uid":null,"name":"
        +A COMPANY LIMITED","jurisdiction_code":"gb","position":"director","retrieved_at":"2014-09-28T09:16:08+00:00","opencorporates_url":"https://opencorporates.com/officers/107704925","start_date":"2002-07-10","end_date":null,"occupation":null,"current_status":"CURRENT","inactive":false,"company":{"name":"SIZE
        REALLY MATTERS LIMITED","jurisdiction_code":"gb","company_number":"04469420","opencorporates_url":"https://opencorporates.com/companies/gb/04469420"}}},{"officer":{"id":106024502,"uid":null,"name":"
        +A COMPANY LIMITED","jurisdiction_code":"gb","position":"director","retrieved_at":"2014-09-22T12:21:38+00:00","opencorporates_url":"https://opencorporates.com/officers/106024502","start_date":"2002-05-09","end_date":"2009-05-01","occupation":"COMPANY
        DIRECTOR","current_status":"RESIGNED","inactive":true,"company":{"name":"COVAD
        COMMUNICATIONS LIMITED","jurisdiction_code":"gb","company_number":"04001722","opencorporates_url":"https://opencorporates.com/companies/gb/04001722"}}},{"officer":{"id":105534367,"uid":null,"name":"
        +A COMPANY LIMITED","jurisdiction_code":"gb","position":"director","retrieved_at":"2014-09-18T13:39:11+00:00","opencorporates_url":"https://opencorporates.com/officers/105534367","start_date":"2000-09-01","end_date":null,"occupation":null,"current_status":"CURRENT","inactive":false,"company":{"name":"CHARTAC
        SECRETARIES LIMITED","jurisdiction_code":"gb","company_number":"03861220","opencorporates_url":"https://opencorporates.com/companies/gb/03861220"}}},{"officer":{"id":108956919,"uid":null,"name":"
        +A COMPANY LIMITED","jurisdiction_code":"gb","position":"director","retrieved_at":"2014-10-19T17:53:57+00:00","opencorporates_url":"https://opencorporates.com/officers/108956919","start_date":"1998-05-01","end_date":"2009-05-01","occupation":"LIMITED
        COMPANY","current_status":"RESIGNED","inactive":true,"company":{"name":"LINKWARE
        LIMITED","jurisdiction_code":"gb","company_number":"03451941","opencorporates_url":"https://opencorporates.com/companies/gb/03451941"}}},{"officer":{"id":127599033,"uid":null,"name":"
        +A COMPANY LIMITED","jurisdiction_code":"gb","position":"director","retrieved_at":"2015-03-17T09:27:11+00:00","opencorporates_url":"https://opencorporates.com/officers/127599033","start_date":"2003-05-14","end_date":"2005-01-01","occupation":"COMPANY
        DIRECTOR","current_status":"RESIGNED","inactive":true,"company":{"name":"FIGARO
        KARZ LIMITED","jurisdiction_code":"gb","company_number":"04548061","opencorporates_url":"https://opencorporates.com/companies/gb/04548061"}}},{"officer":{"id":72304474,"uid":null,"name":"
        +A COMPANY LIMITED","jurisdiction_code":"gb","position":"director","retrieved_at":"2013-08-13T01:18:16+00:00","opencorporates_url":"https://opencorporates.com/officers/72304474","start_date":"2001-12-19","end_date":null,"occupation":null,"current_status":"CURRENT","inactive":true,"company":{"name":"TIDEX
        HOLDINGS LIMITED","jurisdiction_code":"gb","company_number":"04301875","opencorporates_url":"https://opencorporates.com/companies/gb/04301875"}}}]}}'
    http_version: 
  recorded_at: Fri, 11 Sep 2015 02:40:17 GMT
recorded_with: VCR 2.9.3
