---
http_interactions:
- request:
    method: get
    uri: https://api.opencorporates.com/companies/search
    body:
      encoding: US-ASCII
      string: ''
    headers:
      User-Agent:
      - Faraday v0.9.1
  response:
    status:
      code: 200
      message: 
    headers:
      content-type:
      - application/json;charset=utf-8
      transfer-encoding:
      - chunked
      connection:
      - close
      status:
      - 200 OK
      x-content-type-options:
      - nosniff
      x-powered-by:
      - Phusion Passenger 4.0.58
      date:
      - Mon, 14 Sep 2015 03:14:48 GMT
      server:
      - nginx/1.6.1 + Phusion Passenger 4.0.52
      access-control-allow-origin:
      - 'null'
      access-control-allow-credentials:
      - 'true'
      access-control-allow-methods:
      - GET
      access-control-allow-headers:
      - DNT,X-Mx-ReqToken,Keep-Alive,User-Agent,X-Requested-With,If-Modified-Since,Cache-Control,Content-Type
    body:
      encoding: ASCII-8BIT
      string: '{"api_version":"0.4.1","results":{"companies":[{"company":{"name":"!
        ! ! ! ! ! ! ! ! ! ! ! ! ! ! ! ! ! ! ! AARDVARK ABLE SERVICES PTY. LTD.","company_number":"154457388","jurisdiction_code":"au","incorporation_date":"2015-04-17","dissolution_date":null,"company_type":"Australian
        Proprietary Company, Limited by Shares","registry_url":"https://connectonline.asic.gov.au/RegistrySearch/faces/landing/panelSearch.jspx?searchTab=search&searchType=OrgAndBusNm&searchText=154457388&_adf.ctrl-state=13cs8h575n_4","branch_status":null,"inactive":true,"current_status":"Deregistered","created_at":"2014-10-18T08:04:00+00:00","updated_at":"2015-08-18T03:01:13+00:00","retrieved_at":"2015-08-03T08:32:00+00:00","opencorporates_url":"https://opencorporates.com/companies/au/154457388","previous_names":[],"source":{"publisher":"Australian
        Securities & Investments Commission","url":"https://connectonline.asic.gov.au/RegistrySearch/faces/landing/panelSearch.jspx?searchTab=search&searchType=OrgAndBusNm&searchText=154457388&_adf.ctrl-state=13cs8h575n_4","retrieved_at":"2015-08-03T08:32:00+00:00"},"registered_address_in_full":null}},{"company":{"name":"!
        ! ! ! ! ! A A A A A A A AA AUSTECH COMMS PTY. LTD.","company_number":"154081535","jurisdiction_code":"au","incorporation_date":"2014-03-28","dissolution_date":null,"company_type":"Australian
        Proprietary Company, Limited by Shares","registry_url":"https://connectonline.asic.gov.au/RegistrySearch/faces/landing/panelSearch.jspx?searchTab=search&searchType=OrgAndBusNm&searchText=154081535&_adf.ctrl-state=13cs8h575n_4","branch_status":null,"inactive":true,"current_status":"Deregistered","created_at":"2014-10-18T08:04:00+00:00","updated_at":"2015-04-15T11:49:59+00:00","retrieved_at":"2014-12-01T09:00:00+00:00","opencorporates_url":"https://opencorporates.com/companies/au/154081535","previous_names":[],"source":{"publisher":"Australian
        Securities & Investments Commission","url":"https://connectonline.asic.gov.au/RegistrySearch/faces/landing/panelSearch.jspx?searchTab=search&searchType=OrgAndBusNm&searchText=154081535&_adf.ctrl-state=13cs8h575n_4","retrieved_at":"2014-12-01T09:00:00+00:00"},"registered_address_in_full":null}},{"company":{"name":"!
        ! ! ! $49 a Year at Www.pennsylvaniaregisteredagent.com LLC","company_number":"4271400","jurisdiction_code":"us_pa","incorporation_date":"2014-05-23","dissolution_date":null,"company_type":"Limited
        Liability Company - Domestic","registry_url":"https://www.corporations.state.pa.us/corp/soskb/corp.asp?3311437","branch_status":null,"inactive":false,"current_status":"Active","created_at":"2014-05-31T03:38:17+00:00","updated_at":"2014-09-05T09:31:27+00:00","retrieved_at":"2014-09-05T09:31:27+00:00","opencorporates_url":"https://opencorporates.com/companies/us_pa/4271400","previous_names":[],"source":{"publisher":"Pennsylvania
        Department of State","url":"https://www.corporations.state.pa.us/corp/soskb/corp.asp?3311437","retrieved_at":"2014-09-05T09:31:27+00:00"},"registered_address_in_full":"%
        Registered Agents Inc\nPA\nMontgomery"}},{"company":{"name":"! ! ! #1 AAVANTE","company_number":"C3615049","jurisdiction_code":"us_ca","incorporation_date":"2013-10-24","dissolution_date":null,"company_type":"Foreign
        Stock","registry_url":"https://businessfilings.sos.ca.gov/frmDetail.asp?CorpID=03615049","branch_status":"branch
        of an out-of-jurisdiction company","inactive":false,"current_status":"Active","created_at":"2013-11-01T05:11:40+00:00","updated_at":"2015-08-03T17:53:58+00:00","retrieved_at":"2014-12-16T20:43:21+00:00","opencorporates_url":"https://opencorporates.com/companies/us_ca/C3615049","previous_names":[],"source":{"publisher":"California
        Secretary of State","url":"http://kepler.sos.ca.gov/","retrieved_at":"2014-12-16T20:43:21+00:00"},"registered_address_in_full":"21781
        VENTURA BLVD STE #418, WOODLAND HILLS, CA 91364"}},{"company":{"name":"! !
        ! 1ST CHOICE ANDROID SMART-PHONE TUTORING, INC.","company_number":"C3517133","jurisdiction_code":"us_ca","incorporation_date":"2012-11-02","dissolution_date":null,"company_type":"Domestic
        Stock","registry_url":"https://businessfilings.sos.ca.gov/frmDetail.asp?CorpID=03517133","branch_status":null,"inactive":false,"current_status":"Active","created_at":"2012-11-10T03:15:55+00:00","updated_at":"2015-06-21T20:12:54+00:00","retrieved_at":"2015-06-21T20:12:54+00:00","opencorporates_url":"https://opencorporates.com/companies/us_ca/C3517133","previous_names":[],"source":{"publisher":"California
        Secretary of State","url":"http://kepler.sos.ca.gov/","retrieved_at":"2015-06-21T20:12:54+00:00"},"registered_address_in_full":"420
        N MCKINLEY ST #111-182, CORONA, CA 92879"}},{"company":{"name":"! ! ! BB BULK,
        Inc.","company_number":"cc09aa62-87d4-e011-a886-001ec94ffe7f","jurisdiction_code":"us_mn","incorporation_date":"2003-11-26","dissolution_date":null,"company_type":"Business
        Corporation (Domestic)","registry_url":"https://mblsportal.sos.state.mn.us/Business/SearchDetails?filingGuid=cc09aa62-87d4-e011-a886-001ec94ffe7f","branch_status":null,"inactive":true,"current_status":"Inactive","created_at":"2015-07-03T01:51:55+00:00","updated_at":"2015-07-03T05:05:21+00:00","retrieved_at":"2015-06-26T14:22:13+00:00","opencorporates_url":"https://opencorporates.com/companies/us_mn/cc09aa62-87d4-e011-a886-001ec94ffe7f","previous_names":[],"source":{"publisher":"Office
        of the Minnesota Secretary Of State","url":"https://mblsportal.sos.state.mn.us/Business/SearchDetails?filingGuid=cc09aa62-87d4-e011-a886-001ec94ffe7f","retrieved_at":"2015-06-26T14:22:13+00:00"},"registered_address_in_full":"5400
        Vernon Ave S #218\nMpls, MN 55436\nUSA"}},{"company":{"name":"! ! !Seckel
        Capital","company_number":"4050002","jurisdiction_code":"us_pa","incorporation_date":"2011-08-15","dissolution_date":null,"company_type":null,"registry_url":"https://www.corporations.state.pa.us/corp/soskb/corp.asp?2980005","branch_status":null,"inactive":null,"current_status":null,"created_at":"2013-10-13T17:32:35+00:00","updated_at":"2014-03-06T19:07:17+00:00","retrieved_at":"2013-09-20T08:00:41+00:00","opencorporates_url":"https://opencorporates.com/companies/us_pa/4050002","previous_names":[],"source":{"publisher":"Pennsylvania
        Department of State","url":"https://www.corporations.state.pa.us/corp/soskb/corp.asp?2980005","retrieved_at":"2013-09-20T08:00:41+00:00"},"registered_address_in_full":null}},{"company":{"name":"!
        ! # 1 2 3 ! ! COMPUTADORA GRATIS PARA TI","company_number":"C3426562","jurisdiction_code":"us_ca","incorporation_date":"2011-11-23","dissolution_date":null,"company_type":"Domestic
        Stock","registry_url":"https://businessfilings.sos.ca.gov/frmDetail.asp?CorpID=03426562","branch_status":null,"inactive":true,"current_status":"Suspended","created_at":"2013-06-19T20:58:58+00:00","updated_at":"2014-03-07T09:39:33+00:00","retrieved_at":"2014-02-01T03:20:19+00:00","opencorporates_url":"https://opencorporates.com/companies/us_ca/C3426562","previous_names":[],"source":{"publisher":"California
        Secretary of State","url":"http://kepler.sos.ca.gov/","retrieved_at":"2014-02-01T03:20:19+00:00"},"registered_address_in_full":"1348
        N SIERRA BONITA #307, WEST HOLLYWOOD, CA 90046"}},{"company":{"name":"! !
        # 1 AT-HOME TUTORS, INC.","company_number":"C3358492","jurisdiction_code":"us_ca","incorporation_date":"2011-03-16","dissolution_date":null,"company_type":"Domestic
        Stock","registry_url":"https://businessfilings.sos.ca.gov/frmDetail.asp?CorpID=03358492","branch_status":null,"inactive":true,"current_status":"Merged
        Out","created_at":"2011-09-17T21:41:58+00:00","updated_at":"2014-03-04T21:01:27+00:00","retrieved_at":"2013-12-12T10:02:12+00:00","opencorporates_url":"https://opencorporates.com/companies/us_ca/C3358492","previous_names":[],"source":{"publisher":"California
        Secretary of State","url":"http://kepler.sos.ca.gov/","retrieved_at":"2013-12-12T10:02:12+00:00"},"registered_address_in_full":"5777
        W. CENTURY BLVD., SUITE 300, LOS ANGELES, CA 90045"}},{"company":{"name":"!
        \"B2B\" DOMAINS LLC","company_number":"38460C5","jurisdiction_code":"us_hi","incorporation_date":null,"dissolution_date":null,"company_type":null,"registry_url":"https://hbe.ehawaii.gov/documents/business.html?fileNumber=38460C5","branch_status":null,"inactive":true,"current_status":"Adm.
        Terminated","created_at":"2014-05-21T22:12:46+00:00","updated_at":"2014-05-21T22:12:46+00:00","retrieved_at":"2014-05-20T15:14:37+00:00","opencorporates_url":"https://opencorporates.com/companies/us_hi/38460C5","previous_names":[],"source":{"publisher":"Hawaii
        Department Of Commerce & Consumer Affairs","url":"https://hbe.ehawaii.gov/documents/business.html?fileNumber=38460C5","retrieved_at":"2014-05-20T15:14:37+00:00"},"registered_address_in_full":null}},{"company":{"name":"!
        # 0000 ACCELERATED BUILDERS COURSE, INC.","company_number":"02056G","jurisdiction_code":"us_mi","incorporation_date":"2009-03-16","dissolution_date":"2012-07-15","company_type":"Domestic
        Profit Corporation","registry_url":"http://www.dleg.state.mi.us/bcs_corp/dt_corp.asp?id_nbr=02056G","branch_status":null,"inactive":true,"current_status":"Automatic
        Dissolution","created_at":"2011-01-24T00:10:35+00:00","updated_at":"2015-08-02T03:00:17+00:00","retrieved_at":"2015-08-02T03:00:17+00:00","opencorporates_url":"https://opencorporates.com/companies/us_mi/02056G","previous_names":[],"source":{"publisher":"Michigan
        Department of Energy, Labor & Economic Growth","url":"http://www.dleg.state.mi.us/bcs_corp/sr_corp.asp","retrieved_at":"2015-08-02T03:00:17+00:00"},"registered_address_in_full":"55
        E LONG LAKE RD # 460, TROY, MI 48085"}},{"company":{"name":"! # 1 AVAILABLE
        LOCKSMITH LTD","company_number":"05905727","jurisdiction_code":"gb","incorporation_date":"2006-08-15","dissolution_date":"2009-08-18","company_type":"Private
        Limited Company","registry_url":"http://data.companieshouse.gov.uk/doc/company/05905727","branch_status":null,"inactive":true,"current_status":"Dissolved","created_at":"2010-10-22T22:19:59+00:00","updated_at":"2014-10-21T14:32:40+00:00","retrieved_at":"2011-11-15T09:06:23+00:00","opencorporates_url":"https://opencorporates.com/companies/gb/05905727","previous_names":[],"source":{"publisher":"UK
        Companies House","url":"http://xmlgw.companieshouse.gov.uk/","terms":"UK Crown
        Copyright","retrieved_at":"2011-11-15T09:06:23+00:00"},"registered_address_in_full":"SUITE
        368, 2 LANSDOWNE ROW, LONDON, W1J 6HL"}},{"company":{"name":"! #1 HOST KUWAIT
        INC.","company_number":"F09000001869","jurisdiction_code":"us_fl","incorporation_date":"2009-05-07","dissolution_date":null,"company_type":"Foreign
        for Profit","registry_url":null,"branch_status":"branch of an out-of-jurisdiction
        company","inactive":true,"current_status":"Inactive","created_at":"2012-04-07T20:23:01+00:00","updated_at":"2015-06-23T11:12:46+00:00","retrieved_at":"2015-06-01T00:00:00+00:00","opencorporates_url":"https://opencorporates.com/companies/us_fl/F09000001869","previous_names":[],"source":{"publisher":"Florida
        Department of State Division of Corporations","url":"http://www.sunbiz.org","retrieved_at":"2015-06-01T00:00:00+00:00"},"registered_address_in_full":null}},{"company":{"name":"!
        #1 HOST MALAYSIA INC.","company_number":"F09000001863","jurisdiction_code":"us_fl","incorporation_date":"2009-05-07","dissolution_date":null,"company_type":"Foreign
        for Profit","registry_url":null,"branch_status":"branch of an out-of-jurisdiction
        company","inactive":true,"current_status":"Inactive","created_at":"2012-03-05T22:12:57+00:00","updated_at":"2015-06-29T22:51:38+00:00","retrieved_at":"2015-06-01T00:00:00+00:00","opencorporates_url":"https://opencorporates.com/companies/us_fl/F09000001863","previous_names":[],"source":{"publisher":"Florida
        Department of State Division of Corporations","url":"http://www.sunbiz.org","retrieved_at":"2015-06-01T00:00:00+00:00"},"registered_address_in_full":null}},{"company":{"name":"!
        #1 HOST UNITED KINGDOM INC.","company_number":"F09000001865","jurisdiction_code":"us_fl","incorporation_date":"2009-05-07","dissolution_date":null,"company_type":"Foreign
        for Profit","registry_url":null,"branch_status":"branch of an out-of-jurisdiction
        company","inactive":true,"current_status":"Inactive","created_at":"2012-03-21T08:56:25+00:00","updated_at":"2015-08-04T04:47:54+00:00","retrieved_at":"2015-06-01T00:00:00+00:00","opencorporates_url":"https://opencorporates.com/companies/us_fl/F09000001865","previous_names":[],"source":{"publisher":"Florida
        Department of State Division of Corporations","url":"http://www.sunbiz.org","retrieved_at":"2015-06-01T00:00:00+00:00"},"registered_address_in_full":null}},{"company":{"name":"!
        (BANG) J INCORPORATED","company_number":"0836526","jurisdiction_code":"us_nc","incorporation_date":"2006-03-24","dissolution_date":null,"company_type":"Business
        Corporation","registry_url":null,"branch_status":"branch of an out-of-jurisdiction
        company","inactive":true,"current_status":"Withdrawn","created_at":"2014-09-27T02:36:50+00:00","updated_at":"2015-09-12T22:41:33+00:00","retrieved_at":null,"opencorporates_url":"https://opencorporates.com/companies/us_nc/0836526","previous_names":[],"source":{"publisher":"North
        Carolina Secretary of State, Corporations Division","url":"http://www.secretary.state.nc.us/corporations/","retrieved_at":null},"registered_address_in_full":"2109
        MOUNTAIN HIGH ROAD WAKE FOREST NC 27587"}},{"company":{"name":"! 0 1 A 4 BAIL
        LLC","company_number":"40585085K","jurisdiction_code":"us_la","incorporation_date":"2011-08-09","dissolution_date":null,"company_type":"Limited
        Liability Company","registry_url":"http://coraweb.sos.la.gov/commercialsearch/CommercialSearchDetails.aspx?CharterID=947028_H6D52","branch_status":null,"inactive":true,"current_status":"Inactive","created_at":"2012-02-20T12:15:20+00:00","updated_at":"2015-07-08T02:54:48+00:00","retrieved_at":"2015-05-18T20:06:10+00:00","opencorporates_url":"https://opencorporates.com/companies/us_la/40585085K","previous_names":[],"source":{"publisher":"Louisiana
        Secretary Of State, Commercial Division","url":"http://coraweb.sos.la.gov/commercialsearch/CommercialSearchDetails.aspx?CharterID=947028_H6D52","retrieved_at":"2015-05-18T20:06:10+00:00"},"registered_address_in_full":"19137
        MILLION DOLLAR RD, COVINGTON, LA 70435"}},{"company":{"name":"! 0 A 4 BAIL
        LLC","company_number":"40581470K","jurisdiction_code":"us_la","incorporation_date":"2011-08-05","dissolution_date":null,"company_type":"Limited
        Liability Company","registry_url":"http://coraweb.sos.la.gov/commercialsearch/CommercialSearchDetails.aspx?CharterID=946496_5DF52","branch_status":null,"inactive":true,"current_status":"Inactive","created_at":"2012-02-20T12:10:34+00:00","updated_at":"2015-07-08T02:58:38+00:00","retrieved_at":"2015-05-18T20:06:25+00:00","opencorporates_url":"https://opencorporates.com/companies/us_la/40581470K","previous_names":[],"source":{"publisher":"Louisiana
        Secretary Of State, Commercial Division","url":"http://coraweb.sos.la.gov/commercialsearch/CommercialSearchDetails.aspx?CharterID=946496_5DF52","retrieved_at":"2015-05-18T20:06:25+00:00"},"registered_address_in_full":"19137
        MILLION DOLLAR ROAD, COVINGTON, LA 70435"}},{"company":{"name":"! 1 2 3 !
        MAESTROS LATINOS, INC.","company_number":"C3426563","jurisdiction_code":"us_ca","incorporation_date":"2011-11-23","dissolution_date":null,"company_type":"Domestic
        Stock","registry_url":"https://businessfilings.sos.ca.gov/frmDetail.asp?CorpID=03426563","branch_status":null,"inactive":true,"current_status":"Suspended","created_at":"2013-06-19T20:58:58+00:00","updated_at":"2014-03-07T09:39:35+00:00","retrieved_at":"2014-01-18T00:19:16+00:00","opencorporates_url":"https://opencorporates.com/companies/us_ca/C3426563","previous_names":[],"source":{"publisher":"California
        Secretary of State","url":"http://kepler.sos.ca.gov/","retrieved_at":"2014-01-18T00:19:16+00:00"},"registered_address_in_full":"833
        N EDINBURGH, LOS ANGELES, CA 90046"}},{"company":{"name":"! 100% ACADEMIC
        ACHIEVEMENT ! LLC","company_number":"L08000018440","jurisdiction_code":"us_fl","incorporation_date":"2008-02-20","dissolution_date":null,"company_type":"Florida
        Limited Liability","registry_url":null,"branch_status":null,"inactive":true,"current_status":"Inactive","created_at":"2012-02-13T07:00:30+00:00","updated_at":"2015-06-17T05:27:53+00:00","retrieved_at":"2015-06-01T00:00:00+00:00","opencorporates_url":"https://opencorporates.com/companies/us_fl/L08000018440","previous_names":[],"source":{"publisher":"Florida
        Department of State Division of Corporations","url":"http://www.sunbiz.org","retrieved_at":"2015-06-01T00:00:00+00:00"},"registered_address_in_full":null}},{"company":{"name":"!
        @B CLEAN","company_number":"0889955204","jurisdiction_code":"be","incorporation_date":"2007-06-08","dissolution_date":null,"company_type":"Soci\u00e9t\u00e9
        priv\u00e9e \u00e0 responsabilit\u00e9 limit\u00e9e","registry_url":"https://kbopub.economie.fgov.be/kbopub/toonondernemingps.html?lang=fr&ondernemingsnummer=0889955204","branch_status":null,"inactive":false,"current_status":"Situation
        Normale","created_at":"2014-06-09T01:20:56+00:00","updated_at":"2015-07-31T12:21:17+00:00","retrieved_at":"2015-07-31T12:21:17+00:00","opencorporates_url":"https://opencorporates.com/companies/be/0889955204","previous_names":[],"source":{"publisher":"La
        Banque-Carrefour des Entreprises","url":"http://economie.fgov.be/fr/entreprises/bce/pub/opendata/","retrieved_at":"2015-07-31T12:21:17+00:00"},"registered_address_in_full":"Rue
        Defacqz 62, Ixelles, 1050"}},{"company":{"name":"! A SUCCESSFUL ROUTE, LLC!","company_number":"L08000118024","jurisdiction_code":"us_fl","incorporation_date":"2008-12-30","dissolution_date":null,"company_type":"Florida
        Limited Liability","registry_url":null,"branch_status":null,"inactive":true,"current_status":"Inactive","created_at":"2012-03-10T14:49:37+00:00","updated_at":"2015-06-13T11:52:46+00:00","retrieved_at":"2015-06-01T00:00:00+00:00","opencorporates_url":"https://opencorporates.com/companies/us_fl/L08000118024","previous_names":[],"source":{"publisher":"Florida
        Department of State Division of Corporations","url":"http://www.sunbiz.org","retrieved_at":"2015-06-01T00:00:00+00:00"},"registered_address_in_full":null}},{"company":{"name":"!
        A-TEAM LEARNING, LLC","company_number":"L11000010896","jurisdiction_code":"us_fl","incorporation_date":"2011-01-26","dissolution_date":null,"company_type":"Florida
        Limited Liability","registry_url":null,"branch_status":null,"inactive":false,"current_status":"Active","created_at":"2012-03-25T17:51:58+00:00","updated_at":"2015-06-28T10:46:47+00:00","retrieved_at":"2015-06-01T00:00:00+00:00","opencorporates_url":"https://opencorporates.com/companies/us_fl/L11000010896","previous_names":[],"source":{"publisher":"Florida
        Department of State Division of Corporations","url":"http://www.sunbiz.org","retrieved_at":"2015-06-01T00:00:00+00:00"},"registered_address_in_full":null}},{"company":{"name":"!
        ACHIEVE SUCCESS, LLC","company_number":"L09000025190","jurisdiction_code":"us_fl","incorporation_date":"2009-03-16","dissolution_date":null,"company_type":"Florida
        Limited Liability Company","registry_url":null,"branch_status":null,"inactive":false,"current_status":"Active","created_at":"2012-02-13T13:06:59+00:00","updated_at":"2015-09-03T18:16:39+00:00","retrieved_at":"2015-09-03T18:16:39+00:00","opencorporates_url":"https://opencorporates.com/companies/us_fl/L09000025190","previous_names":[],"source":{"publisher":"Florida
        Department of State Division of Corporations","url":"http://www.sunbiz.org","retrieved_at":"2015-09-03T18:16:39+00:00"},"registered_address_in_full":null}},{"company":{"name":"!
        ACHIEVE SUCCESS, LLC","company_number":"201108210031","jurisdiction_code":"us_ca","incorporation_date":"2011-03-22","dissolution_date":null,"company_type":null,"registry_url":"https://businessfilings.sos.ca.gov/frmDetail.asp?CorpID=201108210031","branch_status":"branch
        of an out-of-jurisdiction company","inactive":false,"current_status":"Active","created_at":"2014-08-19T05:55:31+00:00","updated_at":"2014-08-19T05:55:31+00:00","retrieved_at":"2014-08-18T21:15:02+00:00","opencorporates_url":"https://opencorporates.com/companies/us_ca/201108210031","previous_names":[],"source":{"publisher":"California
        Secretary of State","url":"http://kepler.sos.ca.gov/","retrieved_at":"2014-08-18T21:15:02+00:00"},"registered_address_in_full":null}},{"company":{"name":"!
        ACHIEVE SUCCESS, LLC","company_number":"495626","jurisdiction_code":"us_ia","incorporation_date":"2015-03-20","dissolution_date":null,"company_type":null,"registry_url":null,"branch_status":"branch
        of an out-of-jurisdiction company","inactive":false,"current_status":"Active","created_at":"2015-06-14T19:55:03+00:00","updated_at":"2015-06-14T19:55:09+00:00","retrieved_at":"2015-06-13T18:45:21+00:00","opencorporates_url":"https://opencorporates.com/companies/us_ia/495626","previous_names":[],"source":{"publisher":"Iowa
        Secretary of State","url":"http://sos.iowa.gov/search/business/search.aspx","retrieved_at":"2015-06-13T18:45:21+00:00"},"registered_address_in_full":null}},{"company":{"name":"!
        ACHIEVE SUCCESS, LLC.","company_number":"603416731","jurisdiction_code":"us_wa","incorporation_date":"2014-07-02","dissolution_date":null,"company_type":"LLC","registry_url":"http://www.sos.wa.gov/corps/search_detail.aspx?ubi=603416731","branch_status":"branch
        of an out-of-jurisdiction company","inactive":false,"current_status":"Active","created_at":"2014-07-04T05:24:05+00:00","updated_at":"2015-09-03T18:17:18+00:00","retrieved_at":"2015-09-03T18:17:18+00:00","opencorporates_url":"https://opencorporates.com/companies/us_wa/603416731","previous_names":[],"source":{"publisher":"Washington
        Secretary of State - Corporations Division","url":"http://www.sos.wa.gov/corps/search_detail.aspx?ubi=603416731","retrieved_at":"2015-09-03T18:17:18+00:00"},"registered_address_in_full":null}},{"company":{"name":"!
        ALWAYS LOWEST PRICE ! BANKRUPTCY EDUCATION, LLC","company_number":"L16605259","jurisdiction_code":"us_az","incorporation_date":"2011-02-16","dissolution_date":null,"company_type":"L.L.C.","registry_url":"http://ecorp.azcc.gov/Details/Corp?corpid=L16605259&type=L.L.C.","branch_status":null,"inactive":null,"current_status":null,"created_at":"2012-02-03T05:37:40+00:00","updated_at":"2015-08-15T19:44:54+00:00","retrieved_at":"2015-08-13T20:27:42+00:00","opencorporates_url":"https://opencorporates.com/companies/us_az/L16605259","previous_names":[],"source":{"publisher":"Arizona
        Corporation Commission","url":"http://ecorp.azcc.gov/Details/Corp?corpid=L16605259&type=L.L.C.","retrieved_at":"2015-08-13T20:27:42+00:00"},"registered_address_in_full":"9511
        N STONEBROOK DR, TUCSON, AZ 85743"}},{"company":{"name":"! APPROVED FINGERPRINTING
        & HARD CARD SCANNING, INC","company_number":"P15000040942","jurisdiction_code":"us_fl","incorporation_date":"2015-05-06","dissolution_date":null,"company_type":"Domestic
        for Profit","registry_url":null,"branch_status":null,"inactive":false,"current_status":"Active","created_at":"2015-05-08T02:43:20+00:00","updated_at":"2015-06-21T22:19:30+00:00","retrieved_at":"2015-06-01T00:00:00+00:00","opencorporates_url":"https://opencorporates.com/companies/us_fl/P15000040942","previous_names":[],"source":{"publisher":"Florida
        Department of State Division of Corporations","url":"http://www.sunbiz.org","retrieved_at":"2015-06-01T00:00:00+00:00"},"registered_address_in_full":null}},{"company":{"name":"!
        Absolute Educational Excellence LLC","company_number":"275-195","jurisdiction_code":"us_al","incorporation_date":"2013-03-06","dissolution_date":null,"company_type":"Domestic
        Limited Liability Company","registry_url":"http://arc-sos.state.al.us/cgi/corpdetail.mbr/detail?corp=275195","branch_status":null,"inactive":false,"current_status":"Exists","created_at":"2014-08-31T01:25:28+00:00","updated_at":"2015-06-20T07:42:33+00:00","retrieved_at":"2015-06-18T12:08:24+00:00","opencorporates_url":"https://opencorporates.com/companies/us_al/275-195","previous_names":[{"company_name":"Absolute
        Educational Excellence, LLC","end_date":"2013-03-15"}],"source":{"publisher":"Alabama
        Secretary of State","url":"http://arc-sos.state.al.us/cgi/corpdetail.mbr/detail?corp=275195","retrieved_at":"2015-06-18T12:08:24+00:00"},"registered_address_in_full":null}}],"page":1,"per_page":30,"total_pages":2955473,"total_count":88664178}}'
    http_version: 
  recorded_at: Mon, 14 Sep 2015 03:14:48 GMT
recorded_with: VCR 2.9.3
